Tidymodels: Preprocess your Data with Recipes
…
Now, there is a single function that can be used to prepare the recipe and train the model from the resulting predictors:

covid_fit <- 
  covid_wflow %>%
  fit(data = train_data)

Warning: glm.fit: fitted probabilities numerically 0 or 1 occurred

This object has the finalized recipe and fitted model objects inside. You may want to extract the model or recipe objects from the workflow. To do this, you can use the helper functions extract_fit_parsnip() and extract_recipe(). For example, here we pull the fitted model object then use the broom::tidy() function to get a tidy tibble of model coefficients:

covid_fit %>% 
  extract_fit_parsnip() %>% 
  tidy()

# A tibble: 36 × 5
   term                     estimate std.error statistic   p.value
   <chr>                       <dbl>     <dbl>     <dbl>     <dbl>
 1 (Intercept)               11.8    197.         0.0601 9.52e-  1
 2 test_count                -0.137    0.00606  -22.6    5.18e-113
 3 date_USColumbusDay         0.0285   0.480      0.0594 9.53e-  1
 4 date_USCPulaskisBirthday   0.0355   0.513      0.0693 9.45e-  1
 5 date_USElectionDay         0.0333   0.432      0.0770 9.39e-  1
 6 date_USGoodFriday         -0.181    0.500     -0.363  7.16e-  1
 7 date_USInaugurationDay    -0.102    0.484     -0.210  8.34e-  1
 8 date_USLincolnsBirthday    0.264    0.674      0.393  6.95e-  1
 9 date_USMLKingsBirthday     4.72     7.25       0.652  5.15e-  1
10 date_USNewYearsDay        -1.54     1.31      -1.17   2.42e-  1
# … with 26 more rows
…
Our goal was to predict whether more testing led to more positive results. We have just:

Built the model (lr_mod),

Created a preprocessing recipe (covid_rec),

Bundled the model and recipe (covid_wflow), and

Trained our workflow using a single call to fit().

The next step is to use the trained workflow (covid_fit) to predict with the unseen test data, which we will do with a single call to predict(). The predict() method applies the recipe to the new data, then passes them to the fitted model.

predict(covid_fit, test_data)

# A tibble: 2,288 × 1
   .pred_class
   <fct>      
 1 Negative   
 2 Positive   
 3 Positive   
 4 Positive   
 5 Negative   
 6 Positive   
 7 Negative   
 8 Positive   
 9 Positive   
10 Negative   
# … with 2,278 more rows

Because our outcome variable here is a factor, the output from predict() returns the predicted class: Negative versus Positive. But, let’s say we want the predicted class probabilities for each test_source instead. To return those, we can specify type = "prob" when we use predict() or use augment() with the model plus test data to save them together:

covid_aug <- 
  augment(covid_fit, test_data)

# The data looks like:
covid_aug %>%
  select(test_count, result_date, test_source, .pred_class, .pred_Positive) 

# A tibble: 2,288 × 5
   test_count result_date test_source         .pred_class .pred_Positive
        <int> <chr>       <chr>               <fct>                <dbl>
 1          5 2020-08-04  Campus Health       Negative          4.77e- 1
 2          1 2020-08-04  Test All Test Smart Positive          6.12e- 1
 3          0 2020-08-04  Test All Test Smart Positive          6.44e- 1
 4          0 2020-08-04  Campus Health       Positive          7.62e- 1
 5         77 2020-08-04  Test All Test Smart Negative          4.45e- 5
 6          0 2020-08-05  Campus Health       Positive          7.10e- 1
 7        168 2020-08-05  Test All Test Smart Negative          1.65e-10
 8          0 2020-08-06  Campus Health       Positive          6.32e- 1
 9          0 2020-08-06  Campus Health       Positive          7.52e- 1
10          6 2020-08-07  Campus Health       Negative          4.26e- 1
# … with 2,278 more rows
…
